Eyewatch - Ballarat
…
Nicholas Spyrison

16 May, 2018

Metadata and ploting

Data pulled at 5:30pm, 16 May, 2018 952 post from the Eyewtch - Ballarat facebook page.

Pulled and some initial cleaning, lets dive into some basic plots.

load(file = "data/bal_posts_clean.rda")

bal_posts_clean
# A tibble: 952 x 15
   from_id from_name  message        created_time type  link   id    story
     <int> <chr>      <chr>          <chr>        <chr> <chr>  <chr> <chr>
 1      NA Eyewatch ~ "***Warrant W~ T01:41:23+0~ photo https~ 1031~ <NA> 
 2      NA Eyewatch ~ Who wants to ~ T07:15:04+0~ photo https~ 1031~ <NA> 
 3      NA Eyewatch ~ <NA>           T06:23:59+0~ photo https~ 1031~ Eyew~
 4      NA Eyewatch ~ "Everyone sho~ T06:35:02+0~ video https~ 1031~ Eyew~
 5      NA Eyewatch ~ Good news! Mi~ T05:00:50+0~ stat~ <NA>   1031~ <NA> 
 6      NA Eyewatch ~ <NA>           T04:45:36+0~ link  https~ 1031~ Eyew~
 7      NA Eyewatch ~ "Did you know~ T05:00:41+0~ video https~ 1031~ Eyew~
 8      NA Eyewatch ~ "Ballarat Pol~ T03:48:15+0~ photo https~ 1031~ <NA> 
 9      NA Eyewatch ~ "Ballarat Hig~ T05:57:11+0~ link  https~ 1031~ <NA> 
10      NA Eyewatch ~ "Ballarat Pol~ T03:44:49+0~ photo https~ 1031~ <NA> 
# ... with 942 more rows, and 7 more variables: likes_count <int>,
#   comments_count <int>, shares_count <int>, created_datetime <chr>,
#   created_date <date>, wday <ord>, day0 <int>
…
